com\nss\customersinfo\model\BaseEntity.class
com\nss\customersinfo\web\controller\CustomerController.class
com\nss\customersinfo\rest\controller\CustomerRESTController.class
com\nss\customersinfo\dao\hibernate\CarDAOImpl.class
com\nss\customersinfo\dao\AbstractDAO.class
com\nss\customersinfo\model\Customer.class
com\nss\customersinfo\dao\CarDAO.class
com\nss\customersinfo\model\Car.class
com\nss\customersinfo\dao\hibernate\CustomerDAOImpl.class
com\nss\customersinfo\dao\CustomerDAO.class
